<?xml version="1.0" encoding="UTF-8" standalone="no"?>
<!-- Created with Inkscape (http://www.inkscape.org/) -->

<svg
   xmlns:dc="http://purl.org/dc/elements/1.1/"
   xmlns:cc="http://creativecommons.org/ns#"
   xmlns:rdf="http://www.w3.org/1999/02/22-rdf-syntax-ns#"
   xmlns:svg="http://www.w3.org/2000/svg"
   xmlns="http://www.w3.org/2000/svg"
   xmlns:sodipodi="http://sodipodi.sourceforge.net/DTD/sodipodi-0.dtd"
   xmlns:inkscape="http://www.inkscape.org/namespaces/inkscape"
   width="714.07062"
   height="246.74675"
   viewBox="0 0 188.93119 65.285077"
   version="1.1"
   id="svg2497"
   inkscape:version="0.92.4 (5da689c313, 2019-01-14)"
   sodipodi:docname="1534495873.svg">
  <defs
     id="defs2491" />
  <sodipodi:namedview
     id="base"
     pagecolor="#ffffff"
     bordercolor="#666666"
     borderopacity="1.0"
     inkscape:pageopacity="0.0"
     inkscape:pageshadow="2"
     inkscape:zoom="0.35"
     inkscape:cx="-117.1565"
     inkscape:cy="55.703868"
     inkscape:document-units="mm"
     inkscape:current-layer="layer1"
     showgrid="false"
     inkscape:window-width="1920"
     inkscape:window-height="1016"
     inkscape:window-x="0"
     inkscape:window-y="27"
     inkscape:window-maximized="1"
     fit-margin-top="20"
     fit-margin-left="20"
     fit-margin-right="20"
     fit-margin-bottom="20"
     units="px" />
  <metadata
     id="metadata2494">
    <rdf:RDF>
      <cc:Work
         rdf:about="">
        <dc:format>image/svg+xml</dc:format>
        <dc:type
           rdf:resource="http://purl.org/dc/dcmitype/StillImage" />
        <dc:title></dc:title>
      </cc:Work>
    </rdf:RDF>
  </metadata>
  <g
     inkscape:label="Layer 1"
     inkscape:groupmode="layer"
     id="layer1"
     transform="translate(-8.3190869,-98.286573)">
    <g
       id="g1639"
       style="fill:#12a6cb;fill-opacity:1"
       transform="matrix(0.36696308,0,0,0.36696332,43.336558,15.136801)">
      <g
         transform="matrix(3.5425073,0,0,3.5425073,-1119.7412,-1307.0378)"
         style="fill:#12a6cb;fill-opacity:1"
         id="g4817">
        <ellipse
           style="fill:#12a6cb;fill-opacity:1"
           id="_Path_"
           data-name="&lt;Path&gt;"
           class="cls-1"
           cx="419.16248"
           cy="450.52853"
           rx="1.6710424"
           ry="1.6684273" />
        <path
           style="fill:#12a6cb;fill-opacity:1"
           inkscape:connector-curvature="0"
           id="_Path_2"
           data-name="&lt;Path&gt;"
           class="cls-1"
           d="m 422.04169,448.84179 c 4.58948,-8.27938 5.37662,-11.59269 4.94252,-11.83328 -0.43411,-0.24059 -2.91583,2.07115 -7.78513,10.17793 a 3.3368547,3.3368547 0 0 1 2.84261,1.65535 z" />
        <path
           style="fill:#12a6cb;fill-opacity:1"
           inkscape:connector-curvature="0"
           id="_Path_3"
           data-name="&lt;Path&gt;"
           class="cls-1"
           d="m 415.823,450.52852 a 3.3133189,3.3133189 0 0 1 0.43934,-1.64489 c -9.44309,0.16737 -12.68842,1.13756 -12.68842,1.64751 0,0.50994 3.24271,1.47491 12.68842,1.64227 a 3.3133189,3.3133189 0 0 1 -0.43934,-1.64489 z" />
        <path
           style="fill:#12a6cb;fill-opacity:1"
           inkscape:connector-curvature="0"
           id="_Path_4"
           data-name="&lt;Path&gt;"
           class="cls-1"
           d="M 422.04953,452.21003" />
        <path
           style="fill:#12a6cb;fill-opacity:1"
           inkscape:connector-curvature="0"
           id="_Path_5"
           data-name="&lt;Path&gt;"
           class="cls-1"
           d="m 417.49143,454.24718 v 23.01279 h 3.3447 v -17.69108 c -0.95974,-1.41738 -2.06592,-3.16165 -3.3447,-5.32171 z" />
        <path
           style="fill:#12a6cb;fill-opacity:1"
           inkscape:connector-curvature="0"
           id="_Path_3-6"
           data-name="&lt;Path&gt;"
           class="cls-1"
           d="m 421.43736,452.83354 a 3.3133189,3.3133189 0 0 1 -1.4459,0.89892 c 7.00087,6.33937 10.03138,7.85248 10.3803,7.4806 0.34893,-0.37188 -1.35552,-3.2944 -8.12927,-9.87967 a 3.3133189,3.3133189 0 0 1 -0.80513,1.50015 z"
           inkscape:transform-center-x="-3.742773"
           inkscape:transform-center-y="4.4232772" />
      </g>
      <g
         transform="matrix(2.1114108,0,0,2.1114108,-566.84033,-621.61593)"
         style="fill:#12a6cb;fill-opacity:1"
         id="g4817-0">
        <ellipse
           style="fill:#12a6cb;fill-opacity:1"
           id="_Path_-1"
           data-name="&lt;Path&gt;"
           class="cls-1"
           cx="419.16248"
           cy="450.52853"
           rx="1.6710424"
           ry="1.6684273" />
        <path
           style="fill:#12a6cb;fill-opacity:1"
           inkscape:connector-curvature="0"
           id="_Path_2-9"
           data-name="&lt;Path&gt;"
           class="cls-1"
           d="m 422.04169,448.84179 c 4.58948,-8.27938 5.37662,-11.59269 4.94252,-11.83328 -0.43411,-0.24059 -2.91583,2.07115 -7.78513,10.17793 a 3.3368547,3.3368547 0 0 1 2.84261,1.65535 z" />
        <path
           style="fill:#12a6cb;fill-opacity:1"
           inkscape:connector-curvature="0"
           id="_Path_3-66"
           data-name="&lt;Path&gt;"
           class="cls-1"
           d="m 415.823,450.52852 a 3.3133189,3.3133189 0 0 1 0.43934,-1.64489 c -9.44309,0.16737 -12.68842,1.13756 -12.68842,1.64751 0,0.50994 3.24271,1.47491 12.68842,1.64227 a 3.3133189,3.3133189 0 0 1 -0.43934,-1.64489 z" />
        <path
           style="fill:#12a6cb;fill-opacity:1"
           inkscape:connector-curvature="0"
           id="_Path_4-2"
           data-name="&lt;Path&gt;"
           class="cls-1"
           d="M 422.04953,452.21003" />
        <path
           style="fill:#12a6cb;fill-opacity:1"
           inkscape:connector-curvature="0"
           id="_Path_5-9"
           data-name="&lt;Path&gt;"
           class="cls-1"
           d="m 417.49143,454.24718 v 23.01279 h 3.3447 v -17.69108 c -0.95974,-1.41738 -2.06592,-3.16165 -3.3447,-5.32171 z" />
        <path
           style="fill:#12a6cb;fill-opacity:1"
           inkscape:connector-curvature="0"
           id="_Path_3-6-5"
           data-name="&lt;Path&gt;"
           class="cls-1"
           d="m 421.43736,452.83354 a 3.3133189,3.3133189 0 0 1 -1.4459,0.89892 c 7.00087,6.33937 10.03138,7.85248 10.3803,7.4806 0.34893,-0.37188 -1.35552,-3.2944 -8.12927,-9.87967 a 3.3133189,3.3133189 0 0 1 -0.80513,1.50015 z"
           inkscape:transform-center-x="-3.742773"
           inkscape:transform-center-y="4.4232772" />
      </g>
    </g>
    <g
       id="g1029"
       style="fill:none;fill-opacity:1;stroke:#12a6cb;stroke-width:3.5999999;stroke-miterlimit:4;stroke-dasharray:none;stroke-opacity:1"
       transform="matrix(0.40559568,0,0,0.40559568,-258.24783,114.59522)">
      <g
         id="g1643"
         transform="matrix(0.61446887,0,0,0.61446887,208.85752,-88.526699)"
         style="fill:none;fill-opacity:1;stroke:#12a6cb;stroke-width:5.87824726;stroke-miterlimit:4;stroke-dasharray:none;stroke-opacity:1">
        <path
           style="fill:none;fill-opacity:1;stroke:#12a6cb;stroke-width:5.87824726;stroke-linecap:butt;stroke-linejoin:miter;stroke-miterlimit:4;stroke-dasharray:none;stroke-opacity:1"
           d="m 768.49306,314.84916 30.11662,-45.69418 h 35.8284 l 31.15512,45.69418 -17.13532,-46.21343 h -65.94501 z"
           id="path1023"
           inkscape:connector-curvature="0" />
        <path
           style="fill:none;fill-opacity:1;stroke:#12a6cb;stroke-width:5.87824726;stroke-linecap:butt;stroke-linejoin:miter;stroke-miterlimit:4;stroke-dasharray:none;stroke-opacity:1"
           d="m 782.51287,268.63573 53.48296,-35.82839 12.46205,35.82839 -51.9252,-35.82839 -14.01981,35.82839 14.53906,-35.30914 h 37.9054 l -6.23103,-76.84931 h -24.40484 l -7.78878,77.36856 35.82839,-34.27064 -33.23213,0.51926 35.82839,32.19362 -4.15402,-50.8867 -29.59736,1.0385 L 751.877,199.5752 H 879.09376 L 830.80331,181.40138 804.32146,157.51579 H 751.877 l 56.07922,-17.65457 16.61607,-0.51926 54.00221,16.61607 -50.36745,1.0385 -25.9626,25.96261 2.07701,-25.96261 11.9428,-44.13642 12.9813,44.13642"
           id="path1025"
           inkscape:connector-curvature="0" />
      </g>
    </g>
    <path
       id="path1749"
       d="m 140.58036,146.9722 c 2.51651,0.73281 4.71197,2.09078 5.82663,3.08887 0.67969,0.55205 0.50395,0.55411 0.75749,0.58121 3.32667,0.3337 5.63859,2.43563 6.30179,4.80035 -1.07851,5e-4 -2.15703,-0.003 -3.23554,-0.003 -0.0501,-0.16808 -0.0606,-0.51363 -0.27516,-0.89936 -1.01193,-1.81144 -3.75678,-1.12855 -3.7857,0.94268 0.0309,1.92617 2.40774,2.68667 3.5736,1.275 0.19555,-0.21625 0.30111,-0.49187 0.41417,-0.75574 3.3584,-0.007 3.09069,0.0107 8.6459,0.0134 v 0.79697 c -3.53599,-0.003 -7.96443,-0.0269 -8.1029,-0.01 -0.0847,0.0597 -0.11385,0.16783 -0.17294,0.2492 -0.72229,1.03331 -1.98303,1.40881 -3.01467,1.14842 -2.23382,-0.53976 -2.89877,-3.41678 -1.13806,-4.85894 0.97087,-0.81389 2.40797,-0.88391 3.47072,-0.11051 0.7977,0.56534 0.97122,1.32641 1.03551,1.39969 0.0793,0.0202 1.26982,0.0156 1.36292,0.003 -0.17362,-0.5185 -1.28486,-1.78652 -2.17007,-2.24811 -1.01031,-0.52365 -2.01956,-0.89939 -3.39509,-0.9766 -0.0244,-0.0141 -3.51445,-3.75259 -8.91055,-4.1489 -2.65834,-0.0391 -4.69905,0.59283 -7.1838,2.01499 -0.17597,0.0986 -1.06568,0.67041 -1.38743,0.93519 -0.068,0.0642 -0.16672,0.036 -0.25049,0.042 -0.99359,0.0508 -1.72864,0.22363 -2.41863,0.46034 -1.17978,0.47492 -1.92317,0.87721 -2.20161,3.14794 -0.0218,0.20812 -0.0468,0.41705 -0.04,0.62677 0.0161,2.6e-4 2.12705,0.0293 2.27835,0.0162 0.0386,-0.0763 0.13561,-0.4512 0.48153,-0.88934 1.00769,-1.25145 3.01988,-1.47364 4.3247,0.003 1.33516,1.63863 0.54336,3.99676 -1.49284,4.49652 -0.89231,0.17382 -1.73861,-0.0595 -2.2551,-0.46162 -0.68083,-0.55975 -0.72282,-0.81006 -0.84921,-0.97931 -0.1481,-0.0123 -4.91533,-0.0494 -4.93235,-0.0492 -0.14437,0.47942 0.36705,0.78951 -0.98393,0.68854 -0.40031,-0.005 -0.80079,2.7e-4 -1.20079,-0.007 -0.01,-0.13056 0,-0.26145 -0.006,-0.39204 -0.34351,-0.0171 -0.82714,0.0124 -0.97947,-0.0255 -0.28195,-0.0823 -0.20571,-0.4517 0.0995,-0.43741 0.0158,1.5e-4 0.80915,0.009 0.8594,0.002 0.0176,-0.0811 0.009,-0.42954 0.002,-0.49442 -0.13308,-0.0115 -0.8472,-0.007 -0.96736,-0.0243 -0.24746,-0.0625 -0.22722,-0.37809 -0.004,-0.43249 0.0873,-0.0181 0.54822,-0.001 0.95749,-0.006 0.017,-0.12771 0.001,-0.25654 0.006,-0.38473 0.0705,-0.003 1.30299,0.005 1.3766,0.006 0.44948,0.0327 0.74445,-0.0769 0.80111,0.21594 0.0317,0.16274 0.006,0.32898 0.0204,0.49299 0.39205,0.0146 4.82369,0.0424 5.45688,0.0535 0.0887,0.18678 0.19627,0.63457 0.73201,1.08185 0.86239,0.7095 2.25486,0.50739 2.87835,-0.44125 0.75113,-1.05578 0.20514,-2.63924 -1.08073,-3.03711 -1.05997,-0.33459 -2.28277,0.27708 -2.53281,1.45143 -0.029,0.12278 -0.0417,0.24858 -0.0731,0.37071 -0.0936,0.0147 -2.66282,-0.0198 -3.72694,-0.0202 -0.0187,-1.25652 0.13438,-3.02034 0.87118,-4.01578 1.17784,-1.72113 4.45427,-1.76261 4.55497,-1.84492 1.22688,-0.89705 2.91404,-1.80837 4.4757,-2.3137 2.59987,-0.90251 4.83557,-0.82033 7.20241,-0.13535 z"
       inkscape:connector-curvature="0"
       style="fill:#12a6cb;fill-opacity:1;stroke-width:1.71366465;stroke-miterlimit:4;stroke-dasharray:none" />
    <path
       inkscape:connector-curvature="0"
       style="fill:#12a6cb;fill-opacity:1;stroke:#12a6cb;stroke-width:0.05371331;stroke-opacity:1"
       sodipodi:nodetypes="ccccccccccccccccccccccccccccc"
       d="m 84.845048,131.18021 -1.19071,0.007 0.11512,3.69059 -3.8781,-2.59527 0.0691,2.05582 12.43678,8.24929 c 0.63006,0.009 1.27274,-0.12914 0.89138,-1.3453 l -8.3014,-5.55127 -0.1418,-4.50977 z m -5.31869,1.0791 -13.34454,9.00933 c -0.37001,1.1138 0.35934,1.36196 0.89138,1.34531 l 12.4862,-8.25305 -0.0328,-2.1018 z m -8.95025,8.62098 -1.49994,1.14797 v 14.7588 h 1.45058 l 0.0493,-15.9072 z m 18.31463,0 0.0493,15.9072 h 1.45058 v -14.7588 l -1.49989,-1.14796 z m -20.63988,16.18329 c -0.20293,0.24998 -0.2994,0.49997 0,0.74994 h 22.96567 c 0.16913,-0.19361 0.32622,-0.39123 0,-0.74994 z"
       id="rect5004" />
    <path
       inkscape:connector-curvature="0"
       id="path5796"
       style="fill:#12a6cb;fill-opacity:1;stroke:#12a6cb;stroke-width:0.20399994;stroke-opacity:1"
       d="m 75.309868,145.29077 c 0.13248,2.41352 2.13057,4.32867 4.57735,4.32867 2.44657,0 4.45107,-1.91513 4.58367,-4.32867 h -9.16082 z" />
    <path
       inkscape:connector-curvature="0"
       id="rect5801"
       style="fill:#12a6cb;fill-opacity:1;stroke:#12a6cb;stroke-width:0.20399994;stroke-opacity:1"
       d="m 77.366588,141.99413 c 0.28542,0 0.51519,0.22977 0.51519,0.51518 v 2.88497 c 0,0.28542 -0.22977,0.51518 -0.51519,0.51518 -0.28541,0 -0.51518,-0.22976 -0.51518,-0.51518 v -2.88497 c 0,-0.28541 0.22977,-0.51518 0.51518,-0.51518 z" />
    <path
       inkscape:connector-curvature="0"
       id="rect5803"
       style="fill:#12a6cb;fill-opacity:1;stroke:#12a6cb;stroke-width:0.20399994;stroke-opacity:1"
       d="m 82.262188,141.99413 c 0.28541,0 0.51518,0.22977 0.51518,0.51518 v 2.88497 c 0,0.28542 -0.22977,0.51518 -0.51518,0.51518 -0.28542,0 -0.51518,-0.22976 -0.51518,-0.51518 v -2.88497 c 0,-0.28541 0.22976,-0.51518 0.51518,-0.51518 z" />
    <path
       inkscape:connector-curvature="0"
       id="rect5805"
       style="fill:#12a6cb;fill-opacity:1;stroke:#12a6cb;stroke-width:0.20399994;stroke-opacity:1"
       d="m 78.498788,148.22633 h 3.0137 c 0.28541,0 0.51518,0.22976 0.51518,0.51518 v 3.01369 c 0,0.28542 -0.22977,0.51518 -0.51518,0.51518 h -3.0137 c -0.28541,0 -0.51518,-0.22976 -0.51518,-0.51518 v -3.01369 c 0,-0.28542 0.22977,-0.51518 0.51518,-0.51518 z" />
    <path
       inkscape:connector-curvature="0"
       style="fill:#12a6cb;fill-opacity:1;stroke:#12a6cb;stroke-width:0.05371331;stroke-opacity:1"
       sodipodi:nodetypes="ccccccccccccccccccccccccccccc"
       d="m 111.95181,131.15348 -1.19071,0.007 0.11512,3.69059 -3.8781,-2.59527 0.0691,2.05583 12.43678,8.24929 c 0.63006,0.009 1.27274,-0.12914 0.89138,-1.3453 l -8.3014,-5.55126 -0.1418,-4.50977 z m -5.31869,1.07911 -13.344532,9.00933 c -0.37002,1.1138 0.35933,1.36195 0.89137,1.3453 l 12.486192,-8.25305 -0.0328,-2.1018 z m -8.950252,8.62098 -1.49994,1.14796 v 14.75881 h 1.45058 l 0.0493,-15.9072 z m 18.314632,0 0.0493,15.9072 h 1.45058 v -14.75881 l -1.49989,-1.14796 z m -20.639882,16.18328 c -0.20293,0.24999 -0.2994,0.49997 0,0.74995 h 22.965662 c 0.16914,-0.19361 0.32623,-0.39123 0,-0.74995 z"
       id="rect5004-3" />
    <path
       inkscape:connector-curvature="0"
       id="path5796-6"
       style="fill:#12a6cb;fill-opacity:1;stroke:#12a6cb;stroke-width:0.20399994;stroke-opacity:1"
       d="m 102.41663,145.26404 c 0.13247,2.41353 2.13057,4.32868 4.57735,4.32868 2.44657,0 4.45107,-1.91513 4.58367,-4.32868 h -9.16082 z" />
    <path
       inkscape:connector-curvature="0"
       id="rect5801-2"
       style="fill:#12a6cb;fill-opacity:1;stroke:#12a6cb;stroke-width:0.20399994;stroke-opacity:1"
       d="m 104.47335,141.96741 c 0.28542,0 0.51518,0.22976 0.51518,0.51517 v 2.88497 c 0,0.28542 -0.22976,0.51519 -0.51518,0.51519 -0.28541,0 -0.51518,-0.22977 -0.51518,-0.51519 v -2.88497 c 0,-0.28541 0.22977,-0.51517 0.51518,-0.51517 z" />
    <path
       inkscape:connector-curvature="0"
       id="rect5803-9"
       style="fill:#12a6cb;fill-opacity:1;stroke:#12a6cb;stroke-width:0.20399994;stroke-opacity:1"
       d="m 109.36894,141.9674 c 0.28542,0 0.51519,0.22977 0.51519,0.51518 v 2.88497 c 0,0.28542 -0.22977,0.51518 -0.51519,0.51518 -0.28541,0 -0.51518,-0.22976 -0.51518,-0.51518 v -2.88497 c 0,-0.28541 0.22977,-0.51518 0.51518,-0.51518 z" />
    <path
       inkscape:connector-curvature="0"
       id="rect5805-1"
       style="fill:#12a6cb;fill-opacity:1;stroke:#12a6cb;stroke-width:0.20399994;stroke-opacity:1"
       d="m 105.60555,148.19961 h 3.01369 c 0.28542,0 0.51519,0.22976 0.51519,0.51517 v 3.0137 c 0,0.28541 -0.22977,0.51518 -0.51519,0.51518 h -3.01369 c -0.28541,0 -0.51518,-0.22977 -0.51518,-0.51518 v -3.0137 c 0,-0.28541 0.22977,-0.51517 0.51518,-0.51517 z" />
    <g
       id="g2288"
       transform="matrix(0,0.16536504,-0.16536504,0,134.24996,136.04299)">
      <path
         inkscape:connector-curvature="0"
         id="path3339"
         sodipodi:nodetypes="ccccc"
         style="fill:#12a6cb;fill-opacity:1;fill-rule:evenodd;stroke-width:5.76979637"
         d="m 115.7879,531.18677 0.31849,-32.38985 -22.977293,0.42004 -0.420618,31.96958 z" />
      <path
         inkscape:connector-curvature="0"
         id="path5315"
         d="m 12.09871,486.47575 h 115.58697 v 57.31589 H 11.46184 V 531.37319 H -5.4144686 V 498.25733 H 11.780275 Z"
         style="fill:none;fill-rule:evenodd;stroke:#12a6cb;stroke-width:5.76979637px;stroke-linecap:butt;stroke-linejoin:miter;stroke-opacity:1" />
      <path
         d="m 81.926057,531.47047 0.318492,-32.38985 -22.977291,0.42004 -0.420618,31.96958 z"
         style="fill:#12a6cb;fill-opacity:1;fill-rule:evenodd;stroke-width:5.76979637"
         sodipodi:nodetypes="ccccc"
         id="path3339-3"
         inkscape:connector-curvature="0" />
      <path
         d="M 48.064217,531.47041 48.38271,499.08056 25.405419,499.5006 24.9848,531.47018 Z"
         style="fill:#12a6cb;fill-opacity:1;fill-rule:evenodd;stroke-width:5.76979637"
         sodipodi:nodetypes="ccccc"
         id="path3339-6"
         inkscape:connector-curvature="0" />
    </g>
    <g
       id="g2288-2"
       transform="matrix(0,0.16536504,-0.16536504,0,145.07492,136.04299)">
      <path
         inkscape:connector-curvature="0"
         id="path3339-7"
         sodipodi:nodetypes="ccccc"
         style="fill:#12a6cb;fill-opacity:1;fill-rule:evenodd;stroke-width:5.76979637"
         d="m 115.7879,531.18677 0.31849,-32.38985 -22.977293,0.42004 -0.420618,31.96958 z" />
      <path
         inkscape:connector-curvature="0"
         id="path5315-0"
         d="m 12.09871,486.47575 h 115.58697 v 57.31589 H 11.46184 V 531.37319 H -5.4144686 V 498.25733 H 11.780275 Z"
         style="fill:none;fill-rule:evenodd;stroke:#12a6cb;stroke-width:5.76979637px;stroke-linecap:butt;stroke-linejoin:miter;stroke-opacity:1" />
      <path
         d="m 81.926057,531.47047 0.318492,-32.38985 -22.977291,0.42004 -0.420618,31.96958 z"
         style="fill:#12a6cb;fill-opacity:1;fill-rule:evenodd;stroke-width:5.76979637"
         sodipodi:nodetypes="ccccc"
         id="path3339-3-9"
         inkscape:connector-curvature="0" />
      <path
         d="M 48.064217,531.47041 48.38271,499.08056 25.405419,499.5006 24.9848,531.47018 Z"
         style="fill:#12a6cb;fill-opacity:1;fill-rule:evenodd;stroke-width:5.76979637"
         sodipodi:nodetypes="ccccc"
         id="path3339-6-3"
         inkscape:connector-curvature="0" />
    </g>
    <rect
       style="opacity:1;fill:#ffffff;fill-opacity:1;stroke:#ffffff;stroke-width:0.83509892;stroke-miterlimit:4;stroke-dasharray:none;stroke-opacity:1;paint-order:markers fill stroke"
       id="rect2370"
       width="5.5055552"
       height="2.6206968"
       x="135.81584"
       y="59.313553"
       transform="matrix(0.81688339,0.57680285,-0.45881029,0.88853425,0,0)" />
    <rect
       style="opacity:1;fill:#ffffff;fill-opacity:1;stroke:#ffffff;stroke-width:0.94018507;stroke-miterlimit:4;stroke-dasharray:none;stroke-opacity:1;paint-order:markers fill stroke"
       id="rect2370-6"
       width="6.1701999"
       height="2.9639401"
       x="159.20035"
       y="41.640705"
       transform="matrix(0.81139774,0.58449441,-0.45159836,0.89222134,0,0)" />
  </g>
</svg>
